{"page":1,"per_page":3,"media":[{"type":"Photo","id":789495,"width":5472,"height":3648,"url":"https://www.pexels.com/photo/person-holding-weasel-789495/","photographer":"Magda Ehlers","photographer_url":"https://www.pexels.com/@magda-ehlers-pexels","photographer_id":102775,"avg_color":"#AC8A79","src":{"original":"https://images.pexels.com/photos/789495/pexels-photo-789495.jpeg","large2x":"https://images.pexels.com/photos/789495/pexels-photo-789495.jpeg?auto=compress\u0026cs=tinysrgb\u0026dpr=2\u0026h=650\u0026w=940","large":"https://images.pexels.com/photos/789495/pexels-photo-789495.jpeg?auto=compress\u0026cs=tinysrgb\u0026h=650\u0026w=940","medium":"https://images.pexels.com/photos/789495/pexels-photo-789495.jpeg?auto=compress\u0026cs=tinysrgb\u0026h=350","small":"https://images.pexels.com/photos/789495/pexels-photo-789495.jpeg?auto=compress\u0026cs=tinysrgb\u0026h=130","portrait":"https://images.pexels.com/photos/789495/pexels-photo-789495.jpeg?auto=compress\u0026cs=tinysrgb\u0026fit=crop\u0026h=1200\u0026w=800","landscape":"https://images.pexels.com/photos/789495/pexels-photo-789495.jpeg?auto=compress\u0026cs=tinysrgb\u0026fit=crop\u0026h=627\u0026w=1200","tiny":"https://images.pexels.com/photos/789495/pexels-photo-789495.jpeg?auto=compress\u0026cs=tinysrgb\u0026dpr=1\u0026fit=crop\u0026h=200\u0026w=280"},"liked":false,"alt":"Person Holding Weasel"},{"type":"Photo","id":987954,"width":1544,"height":2268,"url":"https://www.pexels.com/photo/raccoon-987954/","photographer":"Sam Forson","photographer_url":"https://www.pexels.com/@samforson","photographer_id":42814,"avg_color":"#514948","src":{"original":"https://images.pexels.com/photos/987954/pexels-photo-987954.jpeg","large2x":"https://images.pexels.com/photos/987954/pexels-photo-987954.jpeg?auto=compress\u0026cs=tinysrgb\u0026dpr=2\u0026h=650\u0026w=940","large":"https://images.pexels.com/photos/987954/pexels-photo-987954.jpeg?auto=compress\u0026cs=tinysrgb\u0026h=650\u0026w=940","medium":"https://images.pexels.com/photos/987954/pexels-photo-987954.jpeg?auto=compress\u0026cs=tinysrgb\u0026h=350","small":"https://images.pexels.com/photos/987954/pexels-photo-987954.jpeg?auto=compress\u0026cs=tinysrgb\u0026h=130","portrait":"https://images.pexels.com/photos/987954/pexels-photo-987954.jpeg?auto=compress\u0026cs=tinysrgb\u0026fit=crop\u0026h=1200\u0026w=800","landscape":"https://images.pexels.com/photos/987954/pexels-photo-987954.jpeg?auto=compress\u0026cs=tinysrgb\u0026fit=crop\u0026h=627\u0026w=1200","tiny":"https://images.pexels.com/photos/987954/pexels-photo-987954.jpeg?auto=compress\u0026cs=tinysrgb\u0026dpr=1\u0026fit=crop\u0026h=200\u0026w=280"},"liked":false,"alt":"Raccoon"},{"type":"Photo","id":4786126,"width":3032,"height":4548,"url":"https://www.pexels.com/photo/person-wearing-black-leather-boots-4786126/","photographer":"cottonbro studio","photographer_url":"https://www.pexels.com/@cottonbro","photographer_id":1437723,"avg_color":"#605751","src":{"original":"https://images.pexels.com/photos/4786126/pexels-photo-4786126.jpeg","large2x":"https://images.pexels.com/photos/4786126/pexels-photo-4786126.jpeg?auto=compress\u0026cs=tinysrgb\u0026dpr=2\u0026h=650\u0026w=940","large":"https://images.pexels.com/photos/4786126/pexels-photo-4786126.jpeg?auto=compress\u0026cs=tinysrgb\u0026h=650\u0026w=940","medium":"https://images.pexels.com/photos/4786126/pexels-photo-4786126.jpeg?auto=compress\u0026cs=tinysrgb\u0026h=350","small":"https://images.pexels.com/photos/4786126/pexels-photo-4786126.jpeg?auto=compress\u0026cs=tinysrgb\u0026h=130","portrait":"https://images.pexels.com/photos/4786126/pexels-photo-4786126.jpeg?auto=compress\u0026cs=tinysrgb\u0026fit=crop\u0026h=1200\u0026w=800","landscape":"https://images.pexels.com/photos/4786126/pexels-photo-4786126.jpeg?auto=compress\u0026cs=tinysrgb\u0026fit=crop\u0026h=627\u0026w=1200","tiny":"https://images.pexels.com/photos/4786126/pexels-photo-4786126.jpeg?auto=compress\u0026cs=tinysrgb\u0026dpr=1\u0026fit=crop\u0026h=200\u0026w=280"},"liked":false,"alt":"Person Wearing Black Leather Boots"}],"total_results":33,"next_page":"https://api.pexels.com/v1/collections/clyoggb/?page=2\u0026per_page=3","id":"clyoggb"}