{"page":1,"per_page":15,"media":[{"type":"Photo","id":789495,"width":5472,"height":3648,"url":"https://www.pexels.com/photo/person-holding-weasel-789495/","photographer":"Magda Ehlers","photographer_url":"https://www.pexels.com/@magda-ehlers-pexels","photographer_id":102775,"avg_color":"#AC8A79","src":{"original":"https://images.pexels.com/photos/789495/pexels-photo-789495.jpeg","large2x":"https://images.pexels.com/photos/789495/pexels-photo-789495.jpeg?auto=compress\u0026cs=tinysrgb\u0026dpr=2\u0026h=650\u0026w=940","large":"https://images.pexels.com/photos/789495/pexels-photo-789495.jpeg?auto=compress\u0026cs=tinysrgb\u0026h=650\u0026w=940","medium":"https://images.pexels.com/photos/789495/pexels-photo-789495.jpeg?auto=compress\u0026cs=tinysrgb\u0026h=350","small":"https://images.pexels.com/photos/789495/pexels-photo-789495.jpeg?auto=compress\u0026cs=tinysrgb\u0026h=130","portrait":"https://images.pexels.com/photos/789495/pexels-photo-789495.jpeg?auto=compress\u0026cs=tinysrgb\u0026fit=crop\u0026h=1200\u0026w=800","landscape":"https://images.pexels.com/photos/789495/pexels-photo-789495.jpeg?auto=compress\u0026cs=tinysrgb\u0026fit=crop\u0026h=627\u0026w=1200","tiny":"https://images.pexels.com/photos/789495/pexels-photo-789495.jpeg?auto=compress\u0026cs=tinysrgb\u0026dpr=1\u0026fit=crop\u0026h=200\u0026w=280"},"liked":false,"alt":"Person Holding Weasel"},{"type":"Photo","id":987954,"width":1544,"height":2268,"url":"https://www.pexels.com/photo/raccoon-987954/","photographer":"Sam Forson","photographer_url":"https://www.pexels.com/@samforson","photographer_id":42814,"avg_color":"#514948","src":{"original":"https://images.pexels.com/photos/987954/pexels-photo-987954.jpeg","large2x":"https://images.pexels.com/photos/987954/pexels-photo-987954.jpeg?auto=compress\u0026cs=tinysrgb\u0026dpr=2\u0026h=650\u0026w=940","large":"https://images.pexels.com/photos/987954/pexels-photo-987954.jpeg?auto=compress\u0026cs=tinysrgb\u0026h=650\u0026w=940","medium":"https://images.pexels.com/photos/987954/pexels-photo-987954.jpeg?auto=compress\u0026cs=tinysrgb\u0026h=350","small":"https://images.pexels.com/photos/987954/pexels-photo-987954.jpeg?auto=compress\u0026cs=tinysrgb\u0026h=130","portrait":"https://images.pexels.com/photos/987954/pexels-photo-987954.jpeg?auto=compress\u0026cs=tinysrgb\u0026fit=crop\u0026h=1200\u0026w=800","landscape":"https://images.pexels.com/photos/987954/pexels-photo-987954.jpeg?auto=compress\u0026cs=tinysrgb\u0026fit=crop\u0026h=627\u0026w=1200","tiny":"https://images.pexels.com/photos/987954/pexels-photo-987954.jpeg?auto=compress\u0026cs=tinysrgb\u0026dpr=1\u0026fit=crop\u0026h=200\u0026w=280"},"liked":false,"alt":"Raccoon"},{"type":"Photo","id":4786126,"width":3032,"height":4548,"url":"https://www.pexels.com/photo/person-wearing-black-leather-boots-4786126/","photographer":"cottonbro studio","photographer_url":"https://www.pexels.com/@cottonbro","photographer_id":1437723,"avg_color":"#605751","src":{"original":"https://images.pexels.com/photos/4786126/pexels-photo-4786126.jpeg","large2x":"https://images.pexels.com/photos/4786126/pexels-photo-4786126.jpeg?auto=compress\u0026cs=tinysrgb\u0026dpr=2\u0026h=650\u0026w=940","large":"https://images.pexels.com/photos/4786126/pexels-photo-4786126.jpeg?auto=compress\u0026cs=tinysrgb\u0026h=650\u0026w=940","medium":"https://images.pexels.com/photos/4786126/pexels-photo-4786126.jpeg?auto=compress\u0026cs=tinysrgb\u0026h=350","small":"https://images.pexels.com/photos/4786126/pexels-photo-4786126.jpeg?auto=compress\u0026cs=tinysrgb\u0026h=130","portrait":"https://images.pexels.com/photos/4786126/pexels-photo-4786126.jpeg?auto=compress\u0026cs=tinysrgb\u0026fit=crop\u0026h=1200\u0026w=800","landscape":"https://images.pexels.com/photos/4786126/pexels-photo-4786126.jpeg?auto=compress\u0026cs=tinysrgb\u0026fit=crop\u0026h=627\u0026w=1200","tiny":"https://images.pexels.com/photos/4786126/pexels-photo-4786126.jpeg?auto=compress\u0026cs=tinysrgb\u0026dpr=1\u0026fit=crop\u0026h=200\u0026w=280"},"liked":false,"alt":"Person Wearing Black Leather Boots"},{"type":"Photo","id":5403275,"width":8256,"height":5504,"url":"https://www.pexels.com/photo/person-holding-ferret-5403275/","photographer":"Serena Koi","photographer_url":"https://www.pexels.com/@serenakoi","photographer_id":730767,"avg_color":"#554B4D","src":{"original":"https://images.pexels.com/photos/5403275/pexels-photo-5403275.jpeg","large2x":"https://images.pexels.com/photos/5403275/pexels-photo-5403275.jpeg?auto=compress\u0026cs=tinysrgb\u0026dpr=2\u0026h=650\u0026w=940","large":"https://images.pexels.com/photos/5403275/pexels-photo-5403275.jpeg?auto=compress\u0026cs=tinysrgb\u0026h=650\u0026w=940","medium":"https://images.pexels.com/photos/5403275/pexels-photo-5403275.jpeg?auto=compress\u0026cs=tinysrgb\u0026h=350","small":"https://images.pexels.com/photos/5403275/pexels-photo-5403275.jpeg?auto=compress\u0026cs=tinysrgb\u0026h=130","portrait":"https://images.pexels.com/photos/5403275/pexels-photo-5403275.jpeg?auto=compress\u0026cs=tinysrgb\u0026fit=crop\u0026h=1200\u0026w=800","landscape":"https://images.pexels.com/photos/5403275/pexels-photo-5403275.jpeg?auto=compress\u0026cs=tinysrgb\u0026fit=crop\u0026h=627\u0026w=1200","tiny":"https://images.pexels.com/photos/5403275/pexels-photo-5403275.jpeg?auto=compress\u0026cs=tinysrgb\u0026dpr=1\u0026fit=crop\u0026h=200\u0026w=280"},"liked":false,"alt":"Person Holding Ferret"},{"type":"Photo","id":5776581,"width":3872,"height":2592,"url":"https://www.pexels.com/photo/a-white-ferret-on-green-grass-5776581/","photographer":"Brixiv","photographer_url":"https://www.pexels.com/@zante","photographer_id":1582692,"avg_color":"#636B32","src":{"original":"https://images.pexels.com/photos/5776581/pexels-photo-5776581.png","large2x":"https://images.pexels.com/photos/5776581/pexels-photo-5776581.png?auto=compress\u0026cs=tinysrgb\u0026dpr=2\u0026h=650\u0026w=940","large":"https://images.pexels.com/photos/5776581/pexels-photo-5776581.png?auto=compress\u0026cs=tinysrgb\u0026h=650\u0026w=940","medium":"https://images.pexels.com/photos/5776581/pexels-photo-5776581.png?auto=compress\u0026cs=tinysrgb\u0026h=350","small":"https://images.pexels.com/photos/5776581/pexels-photo-5776581.png?auto=compress\u0026cs=tinysrgb\u0026h=130","portrait":"https://images.pexels.com/photos/5776581/pexels-photo-5776581.png?auto=compress\u0026cs=tinysrgb\u0026fit=crop\u0026h=1200\u0026w=800","landscape":"https://images.pexels.com/photos/5776581/pexels-photo-5776581.png?auto=compress\u0026cs=tinysrgb\u0026fit=crop\u0026h=627\u0026w=1200","tiny":"https://images.pexels.com/photos/5776581/pexels-photo-5776581.png?auto=compress\u0026cs=tinysrgb\u0026dpr=1\u0026fit=crop\u0026h=200\u0026w=280"},"liked":false,"alt":"A White Ferret on Green Grass"},{"type":"Photo","id":6528497,"width":4000,"height":6000,"url":"https://www.pexels.com/photo/close-up-photo-of-an-adorable-pine-marten-6528497/","photographer":"Jay Johnson","photographer_url":"https://www.pexels.com/@jay-johnson-19936733","photographer_id":19936733,"avg_color":"#B3B5BB","src":{"original":"https://images.pexels.com/photos/6528497/pexels-photo-6528497.jpeg","large2x":"https://images.pexels.com/photos/6528497/pexels-photo-6528497.jpeg?auto=compress\u0026cs=tinysrgb\u0026dpr=2\u0026h=650\u0026w=940","large":"https://images.pexels.com/photos/6528497/pexels-photo-6528497.jpeg?auto=compress\u0026cs=tinysrgb\u0026h=650\u0026w=940","medium":"https://images.pexels.com/photos/6528497/pexels-photo-6528497.jpeg?auto=compress\u0026cs=tinysrgb\u0026h=350","small":"https://images.pexels.com/photos/6528497/pexels-photo-6528497.jpeg?auto=compress\u0026cs=tinysrgb\u0026h=130","portrait":"https://images.pexels.com/photos/6528497/pexels-photo-6528497.jpeg?auto=compress\u0026cs=tinysrgb\u0026fit=crop\u0026h=1200\u0026w=800","landscape":"https://images.pexels.com/photos/6528497/pexels-photo-6528497.jpeg?auto=compress\u0026cs=tinysrgb\u0026fit=crop\u0026h=627\u0026w=1200","tiny":"https://images.pexels.com/photos/6528497/pexels-photo-6528497.jpeg?auto=compress\u0026cs=tinysrgb\u0026dpr=1\u0026fit=crop\u0026h=200\u0026w=280"},"liked":false,"alt":"Close-up Photo of an Adorable Pine Marten "},{"type":"Photo","id":6859768,"width":2832,"height":4240,"url":"https://www.pexels.com/photo/close-up-shot-of-an-albino-ferret-looking-at-camera-6859768/","photographer":"Archibald Marajas","photographer_url":"https://www.pexels.com/@archibald-marajas-1972711","photographer_id":1972711,"avg_color":"#6F533E","src":{"original":"https://images.pexels.com/photos/6859768/pexels-photo-6859768.jpeg","large2x":"https://images.pexels.com/photos/6859768/pexels-photo-6859768.jpeg?auto=compress\u0026cs=tinysrgb\u0026dpr=2\u0026h=650\u0026w=940","large":"https://images.pexels.com/photos/6859768/pexels-photo-6859768.jpeg?auto=compress\u0026cs=tinysrgb\u0026h=650\u0026w=940","medium":"https://images.pexels.com/photos/6859768/pexels-photo-6859768.jpeg?auto=compress\u0026cs=tinysrgb\u0026h=350","small":"https://images.pexels.com/photos/6859768/pexels-photo-6859768.jpeg?auto=compress\u0026cs=tinysrgb\u0026h=130","portrait":"https://images.pexels.com/photos/6859768/pexels-photo-6859768.jpeg?auto=compress\u0026cs=tinysrgb\u0026fit=crop\u0026h=1200\u0026w=800","landscape":"https://images.pexels.com/photos/6859768/pexels-photo-6859768.jpeg?auto=compress\u0026cs=tinysrgb\u0026fit=crop\u0026h=627\u0026w=1200","tiny":"https://images.pexels.com/photos/6859768/pexels-photo-6859768.jpeg?auto=compress\u0026cs=tinysrgb\u0026dpr=1\u0026fit=crop\u0026h=200\u0026w=280"},"liked":false,"alt":"Close-Up Shot of an Albino Ferret Looking at Camera"},{"type":"Photo","id":7179718,"width":6000,"height":4000,"url":"https://www.pexels.com/photo/white-and-black-ferret-7179718/","photographer":"Verina","photographer_url":"https://www.pexels.com/@verina-37726706","photographer_id":37726706,"avg_color":"#948D8C","src":{"original":"https://images.pexels.com/photos/7179718/pexels-photo-7179718.jpeg","large2x":"https://images.pexels.com/photos/7179718/pexels-photo-7179718.jpeg?auto=compress\u0026cs=tinysrgb\u0026dpr=2\u0026h=650\u0026w=940","large":"https://images.pexels.com/photos/7179718/pexels-photo-7179718.jpeg?auto=compress\u0026cs=tinysrgb\u0026h=650\u0026w=940","medium":"https://images.pexels.com/photos/7179718/pexels-photo-7179718.jpeg?auto=compress\u0026cs=tinysrgb\u0026h=350","small":"https://images.pexels.com/photos/7179718/pexels-photo-7179718.jpeg?auto=compress\u0026cs=tinysrgb\u0026h=130","portrait":"https://images.pexels.com/photos/7179718/pexels-photo-7179718.jpeg?auto=compress\u0026cs=tinysrgb\u0026fit=crop\u0026h=1200\u0026w=800","landscape":"https://images.pexels.com/photos/7179718/pexels-photo-7179718.jpeg?auto=compress\u0026cs=tinysrgb\u0026fit=crop\u0026h=627\u0026w=1200","tiny":"https://images.pexels.com/photos/7179718/pexels-photo-7179718.jpeg?auto=compress\u0026cs=tinysrgb\u0026dpr=1\u0026fit=crop\u0026h=200\u0026w=280"},"liked":false,"alt":"White and Black Ferret"},{"type":"Photo","id":7179720,"width":6000,"height":4000,"url":"https://www.pexels.com/photo/white-and-brown-rodent-on-the-table-7179720/","photographer":"Verina","photographer_url":"https://www.pexels.com/@verina-37726706","photographer_id":37726706,"avg_color":"#80898D","src":{"original":"https://images.pexels.com/photos/7179720/pexels-photo-7179720.jpeg","large2x":"https://images.pexels.com/photos/7179720/pexels-photo-7179720.jpeg?auto=compress\u0026cs=tinysrgb\u0026dpr=2\u0026h=650\u0026w=940","large":"https://images.pexels.com/photos/7179720/pexels-photo-7179720.jpeg?auto=compress\u0026cs=tinysrgb\u0026h=650\u0026w=940","medium":"https://images.pexels.com/photos/7179720/pexels-photo-7179720.jpeg?auto=compress\u0026cs=tinysrgb\u0026h=350","small":"https://images.pexels.com/photos/7179720/pexels-photo-7179720.jpeg?auto=compress\u0026cs=tinysrgb\u0026h=130","portrait":"https://images.pexels.com/photos/7179720/pexels-photo-7179720.jpeg?auto=compress\u0026cs=tinysrgb\u0026fit=crop\u0026h=1200\u0026w=800","landscape":"https://images.pexels.com/photos/7179720/pexels-photo-7179720.jpeg?auto=compress\u0026cs=tinysrgb\u0026fit=crop\u0026h=627\u0026w=1200","tiny":"https://images.pexels.com/photos/7179720/pexels-photo-7179720.jpeg?auto=compress\u0026cs=tinysrgb\u0026dpr=1\u0026fit=crop\u0026h=200\u0026w=280"},"liked":false,"alt":"White and Brown Rodent on the Table"},{"type":"Photo","id":7179721,"width":6000,"height":4000,"url":"https://www.pexels.com/photo/close-up-shot-of-a-ferret-7179721/","photographer":"Verina","photographer_url":"https://www.pexels.com/@verina-37726706","photographer_id":37726706,"avg_color":"#AD9F92","src":{"original":"https://images.pexels.com/photos/7179721/pexels-photo-7179721.jpeg","large2x":"https://images.pexels.com/photos/7179721/pexels-photo-7179721.jpeg?auto=compress\u0026cs=tinysrgb\u0026dpr=2\u0026h=650\u0026w=940","large":"https://images.pexels.com/photos/7179721/pexels-photo-7179721.jpeg?auto=compress\u0026cs=tinysrgb\u0026h=650\u0026w=940","medium":"https://images.pexels.com/photos/7179721/pexels-photo-7179721.jpeg?auto=compress\u0026cs=tinysrgb\u0026h=350","small":"https://images.pexels.com/photos/7179721/pexels-photo-7179721.jpeg?auto=compress\u0026cs=tinysrgb\u0026h=130","portrait":"https://images.pexels.com/photos/7179721/pexels-photo-7179721.jpeg?auto=compress\u0026cs=tinysrgb\u0026fit=crop\u0026h=1200\u0026w=800","landscape":"https://images.pexels.com/photos/7179721/pexels-photo-7179721.jpeg?auto=compress\u0026cs=tinysrgb\u0026fit=crop\u0026h=627\u0026w=1200","tiny":"https://images.pexels.com/photos/7179721/pexels-photo-7179721.jpeg?auto=compress\u0026cs=tinysrgb\u0026dpr=1\u0026fit=crop\u0026h=200\u0026w=280"},"liked":false,"alt":"Close-Up Shot of a Ferret"},{"type":"Photo","id":8790665,"width":3543,"height":2480,"url":"https://www.pexels.com/photo/black-mink-on-animal-on-gray-rock-8790665/","photographer":"Teterin Oleg","photographer_url":"https://www.pexels.com/@teterin-oleg-76508254","photographer_id":76508254,"avg_color":"#6A6A6C","src":{"original":"https://images.pexels.com/photos/8790665/pexels-photo-8790665.jpeg","large2x":"https://images.pexels.com/photos/8790665/pexels-photo-8790665.jpeg?auto=compress\u0026cs=tinysrgb\u0026dpr=2\u0026h=650\u0026w=940","large":"https://images.pexels.com/photos/8790665/pexels-photo-8790665.jpeg?auto=compress\u0026cs=tinysrgb\u0026h=650\u0026w=940","medium":"https://images.pexels.com/photos/8790665/pexels-photo-8790665.jpeg?auto=compress\u0026cs=tinysrgb\u0026h=350","small":"https://images.pexels.com/photos/8790665/pexels-photo-8790665.jpeg?auto=compress\u0026cs=tinysrgb\u0026h=130","portrait":"https://images.pexels.com/photos/8790665/pexels-photo-8790665.jpeg?auto=compress\u0026cs=tinysrgb\u0026fit=crop\u0026h=1200\u0026w=800","landscape":"https://images.pexels.com/photos/8790665/pexels-photo-8790665.jpeg?auto=compress\u0026cs=tinysrgb\u0026fit=crop\u0026h=627\u0026w=1200","tiny":"https://images.pexels.com/photos/8790665/pexels-photo-8790665.jpeg?auto=compress\u0026cs=tinysrgb\u0026dpr=1\u0026fit=crop\u0026h=200\u0026w=280"},"liked":false,"alt":"Black Mink on Animal on Gray Rock "},{"type":"Photo","id":9083445,"width":3035,"height":4552,"url":"https://www.pexels.com/photo/a-woman-holding-a-ferret-9083445/","photographer":"Evgeniya Litovchenko","photographer_url":"https://www.pexels.com/@evgeniya-litovchenko-1718484","photographer_id":1718484,"avg_color":"#9A9539","src":{"original":"https://images.pexels.com/photos/9083445/pexels-photo-9083445.jpeg","large2x":"https://images.pexels.com/photos/9083445/pexels-photo-9083445.jpeg?auto=compress\u0026cs=tinysrgb\u0026dpr=2\u0026h=650\u0026w=940","large":"https://images.pexels.com/photos/9083445/pexels-photo-9083445.jpeg?auto=compress\u0026cs=tinysrgb\u0026h=650\u0026w=940","medium":"https://images.pexels.com/photos/9083445/pexels-photo-9083445.jpeg?auto=compress\u0026cs=tinysrgb\u0026h=350","small":"https://images.pexels.com/photos/9083445/pexels-photo-9083445.jpeg?auto=compress\u0026cs=tinysrgb\u0026h=130","portrait":"https://images.pexels.com/photos/9083445/pexels-photo-9083445.jpeg?auto=compress\u0026cs=tinysrgb\u0026fit=crop\u0026h=1200\u0026w=800","landscape":"https://images.pexels.com/photos/9083445/pexels-photo-9083445.jpeg?auto=compress\u0026cs=tinysrgb\u0026fit=crop\u0026h=627\u0026w=1200","tiny":"https://images.pexels.com/photos/9083445/pexels-photo-9083445.jpeg?auto=compress\u0026cs=tinysrgb\u0026dpr=1\u0026fit=crop\u0026h=200\u0026w=280"},"liked":false,"alt":"A Woman Holding a Ferret "},{"type":"Photo","id":9083446,"width":3049,"height":4574,"url":"https://www.pexels.com/photo/a-woman-holding-a-ferret-9083446/","photographer":"Evgeniya Litovchenko","photographer_url":"https://www.pexels.com/@evgeniya-litovchenko-1718484","photographer_id":1718484,"avg_color":"#AB9566","src":{"original":"https://images.pexels.com/photos/9083446/pexels-photo-9083446.jpeg","large2x":"https://images.pexels.com/photos/9083446/pexels-photo-9083446.jpeg?auto=compress\u0026cs=tinysrgb\u0026dpr=2\u0026h=650\u0026w=940","large":"https://images.pexels.com/photos/9083446/pexels-photo-9083446.jpeg?auto=compress\u0026cs=tinysrgb\u0026h=650\u0026w=940","medium":"https://images.pexels.com/photos/9083446/pexels-photo-9083446.jpeg?auto=compress\u0026cs=tinysrgb\u0026h=350","small":"https://images.pexels.com/photos/9083446/pexels-photo-9083446.jpeg?auto=compress\u0026cs=tinysrgb\u0026h=130","portrait":"https://images.pexels.com/photos/9083446/pexels-photo-9083446.jpeg?auto=compress\u0026cs=tinysrgb\u0026fit=crop\u0026h=1200\u0026w=800","landscape":"https://images.pexels.com/photos/9083446/pexels-photo-9083446.jpeg?auto=compress\u0026cs=tinysrgb\u0026fit=crop\u0026h=627\u0026w=1200","tiny":"https://images.pexels.com/photos/9083446/pexels-photo-9083446.jpeg?auto=compress\u0026cs=tinysrgb\u0026dpr=1\u0026fit=crop\u0026h=200\u0026w=280"},"liked":false,"alt":"A Woman Holding a Ferret "},{"type":"Photo","id":9083450,"width":4752,"height":3168,"url":"https://www.pexels.com/photo/a-woman-holding-a-ferret-9083450/","photographer":"Evgeniya Litovchenko","photographer_url":"https://www.pexels.com/@evgeniya-litovchenko-1718484","photographer_id":1718484,"avg_color":"#AA9A69","src":{"original":"https://images.pexels.com/photos/9083450/pexels-photo-9083450.jpeg","large2x":"https://images.pexels.com/photos/9083450/pexels-photo-9083450.jpeg?auto=compress\u0026cs=tinysrgb\u0026dpr=2\u0026h=650\u0026w=940","large":"https://images.pexels.com/photos/9083450/pexels-photo-9083450.jpeg?auto=compress\u0026cs=tinysrgb\u0026h=650\u0026w=940","medium":"https://images.pexels.com/photos/9083450/pexels-photo-9083450.jpeg?auto=compress\u0026cs=tinysrgb\u0026h=350","small":"https://images.pexels.com/photos/9083450/pexels-photo-9083450.jpeg?auto=compress\u0026cs=tinysrgb\u0026h=130","portrait":"https://images.pexels.com/photos/9083450/pexels-photo-9083450.jpeg?auto=compress\u0026cs=tinysrgb\u0026fit=crop\u0026h=1200\u0026w=800","landscape":"https://images.pexels.com/photos/9083450/pexels-photo-9083450.jpeg?auto=compress\u0026cs=tinysrgb\u0026fit=crop\u0026h=627\u0026w=1200","tiny":"https://images.pexels.com/photos/9083450/pexels-photo-9083450.jpeg?auto=compress\u0026cs=tinysrgb\u0026dpr=1\u0026fit=crop\u0026h=200\u0026w=280"},"liked":false,"alt":"A Woman Holding a Ferret "},{"type":"Photo","id":9083453,"width":4434,"height":3168,"url":"https://www.pexels.com/photo/woman-holding-brown-and-white-animal-9083453/","photographer":"Evgeniya Litovchenko","photographer_url":"https://www.pexels.com/@evgeniya-litovchenko-1718484","photographer_id":1718484,"avg_color":"#A69672","src":{"original":"https://images.pexels.com/photos/9083453/pexels-photo-9083453.jpeg","large2x":"https://images.pexels.com/photos/9083453/pexels-photo-9083453.jpeg?auto=compress\u0026cs=tinysrgb\u0026dpr=2\u0026h=650\u0026w=940","large":"https://images.pexels.com/photos/9083453/pexels-photo-9083453.jpeg?auto=compress\u0026cs=tinysrgb\u0026h=650\u0026w=940","medium":"https://images.pexels.com/photos/9083453/pexels-photo-9083453.jpeg?auto=compress\u0026cs=tinysrgb\u0026h=350","small":"https://images.pexels.com/photos/9083453/pexels-photo-9083453.jpeg?auto=compress\u0026cs=tinysrgb\u0026h=130","portrait":"https://images.pexels.com/photos/9083453/pexels-photo-9083453.jpeg?auto=compress\u0026cs=tinysrgb\u0026fit=crop\u0026h=1200\u0026w=800","landscape":"https://images.pexels.com/photos/9083453/pexels-photo-9083453.jpeg?auto=compress\u0026cs=tinysrgb\u0026fit=crop\u0026h=627\u0026w=1200","tiny":"https://images.pexels.com/photos/9083453/pexels-photo-9083453.jpeg?auto=compress\u0026cs=tinysrgb\u0026dpr=1\u0026fit=crop\u0026h=200\u0026w=280"},"liked":false,"alt":"Woman Holding Brown and White Animal"}],"total_results":33,"next_page":"https://api.pexels.com/v1/collections/clyoggb/?page=2\u0026per-page=3\u0026per_page=15","id":"clyoggb"}